…
    ## Rows: 3821135 Columns: 3
    ## ── Column specification ────────────────────────────────────────────────────────
    ## Delimiter: "\t"
    ## dbl (3): chr, pos, correct_fst
    ## 
    ## ℹ Use `spec()` to retrieve the full column specification for this data.
    ## ℹ Specify the column types or set `show_col_types = FALSE` to quiet this message.

``` r
chr100_fst_EastBering_GOA %>% arrange(desc(correct_fst))
```

    ## # A tibble: 248 × 3
    ##      lgN      pos correct_fst
    ##    <dbl>    <dbl>       <dbl>
    ##  1   100 10767619       0.337
    ##  2   100 11050165       0.333
    ##  3   100 10750169       0.279
    ##  4   100 10805120       0.249
    ##  5   100 11050174       0.232
    ##  6   100 10767684       0.224
    ##  7   100 10767683       0.218
    ##  8   100 10767560       0.185
    ##  9   100 11049895       0.182
    ## 10   100 10744898       0.156
    ## # … with 238 more rows
…
    ## Rows: 2588645 Columns: 3
    ## ── Column specification ────────────────────────────────────────────────────────
    ## Delimiter: "\t"
    ## dbl (3): chr, pos, correct_fst
    ## 
    ## ℹ Use `spec()` to retrieve the full column specification for this data.
    ## ℹ Specify the column types or set `show_col_types = FALSE` to quiet this message.

``` r
chr100_fst_AI_GOA %>% arrange(desc(correct_fst))
```

    ## # A tibble: 143 × 3
    ##      lgN      pos correct_fst
    ##    <dbl>    <dbl>       <dbl>
    ##  1   100 11050165       0.679
    ##  2   100 10744898       0.612
    ##  3   100 10767542       0.561
    ##  4   100 10972255       0.545
    ##  5   100 10745093       0.540
    ##  6   100 10948534       0.528
    ##  7   100 10767619       0.489
    ##  8   100 10872551       0.441
    ##  9   100 10855605       0.293
    ## 10   100 10841536       0.240
    ## # … with 133 more rows
…
    ## Rows: 2671701 Columns: 3
    ## ── Column specification ────────────────────────────────────────────────────────
    ## Delimiter: "\t"
    ## dbl (3): chr, pos, correct_fst
    ## 
    ## ℹ Use `spec()` to retrieve the full column specification for this data.
    ## ℹ Specify the column types or set `show_col_types = FALSE` to quiet this message.

``` r
chr100_fst_NorthBering_GOA %>% arrange(desc(correct_fst))
```

    ## # A tibble: 145 × 3
    ##      lgN      pos correct_fst
    ##    <dbl>    <dbl>       <dbl>
    ##  1   100 10749404       0.572
    ##  2   100 11050165       0.571
    ##  3   100 10747909       0.567
    ##  4   100 10869842       0.561
    ##  5   100 10894263       0.561
    ##  6   100 10749198       0.554
    ##  7   100 10749513       0.553
    ##  8   100 10749663       0.499
    ##  9   100 10872551       0.492
    ## 10   100 10749636       0.487
    ## # … with 135 more rows
…
    ## Rows: 3483616 Columns: 3
    ## ── Column specification ────────────────────────────────────────────────────────
    ## Delimiter: "\t"
    ## dbl (3): chr, pos, correct_fst
    ## 
    ## ℹ Use `spec()` to retrieve the full column specification for this data.
    ## ℹ Specify the column types or set `show_col_types = FALSE` to quiet this message.

``` r
chr100_fst_SEAK_GOA %>% arrange(desc(correct_fst))
```

    ## # A tibble: 196 × 3
    ##      lgN      pos correct_fst
    ##    <dbl>    <dbl>       <dbl>
    ##  1   100 10749513       0.780
    ##  2   100 10892267       0.735
    ##  3   100 11050165       0.664
    ##  4   100 10767560       0.660
    ##  5   100 10805120       0.660
    ##  6   100 11050174       0.651
    ##  7   100 10872551       0.649
    ##  8   100 11049895       0.444
    ##  9   100 10894263       0.414
    ## 10   100 10869842       0.319
    ## # … with 186 more rows
…
