…
    ## Rows: 62127 Columns: 5
    ## ── Column specification ────────────────────────────────────────────────────────
    ## Delimiter: "\t"
    ## chr (2): region, chr
    ## dbl (3): midPos, Nsites, fst
    ## 
    ## ℹ Use `spec()` to retrieve the full column specification for this data.
    ## ℹ Specify the column types or set `show_col_types = FALSE` to quiet this message.

``` r
chr100_Fst %>% arrange(desc(fst))
```

    ## # A tibble: 62,127 × 5
    ##    region                                              chr   midPos Nsites   fst
    ##    <chr>                                               <chr>  <dbl>  <dbl> <dbl>
    ##  1 (7218,7218)(11048635,11048635)(11048635,11048636)   CM02… 1.10e7      2 0.340
    ##  2 (7166,7166)(10767619,10767619)(10767619,10767620)   CM02… 1.08e7      2 0.337
    ##  3 (7224,7224)(11050165,11050165)(11050165,11050166)   CM02… 1.11e7      2 0.333
    ##  4 (6707,6707)(9997767,9997767)(9997767,9997768)       CM02… 1.00e7      2 0.325
    ##  5 (14285,14285)(21225235,21225235)(21225235,21225236) CM02… 2.12e7      2 0.297
    ##  6 (7161,7161)(10750169,10750169)(10750169,10750170)   CM02… 1.08e7      2 0.279
    ##  7 (7182,7182)(10805120,10805120)(10805120,10805121)   CM02… 1.08e7      2 0.249
    ##  8 (7225,7225)(11050174,11050174)(11050174,11050175)   CM02… 1.11e7      2 0.232
    ##  9 (7168,7168)(10767684,10767684)(10767684,10767685)   CM02… 1.08e7      2 0.224
    ## 10 (7167,7167)(10767683,10767683)(10767683,10767684)   CM02… 1.08e7      2 0.218
    ## # … with 62,117 more rows
…
