…
``` r
mds_chr %>% arrange(desc(dist_2))
```

    ## # A tibble: 9,028 × 14
    ##    lgN    start   stop center  dist_1 dist_2   dist_3   dist_4   dist_5   dist_6
    ##    <chr>  <dbl>  <dbl>  <dbl>   <dbl>  <dbl>    <dbl>    <dbl>    <dbl>    <dbl>
    ##  1 LG014 6.53e6 6.94e6 6.73e6  0.255   0.221 -0.00235 -3.53e-2 -0.0209  -0.0491 
    ##  2 LG055 3.48e7 3.50e7 3.49e7  0.0264  0.212  0.0142   2.28e-1 -0.138    0.0225 
    ##  3 LG055 3.32e7 3.34e7 3.33e7  0.0205  0.199  0.0217   2.13e-1 -0.122    0.0350 
    ##  4 LG002 5.00e7 5.16e7 5.08e7  0.197   0.194  0.00384 -5.09e-2  0.0371   0.00934
    ##  5 LG058 1.30e7 1.36e7 1.33e7  0.332   0.190 -0.0228   3.34e-2  0.0335   0.0361 
    ##  6 LG095 3.87e7 3.92e7 3.90e7  0.181   0.183  0.0288  -4.46e-2  0.0182   0.0296 
    ##  7 LG001 3.00e7 3.08e7 3.04e7 -0.0591  0.181 -0.0382  -1.35e-1  0.103    0.00727
    ##  8 LG101 1.35e7 1.42e7 1.38e7  0.140   0.172 -0.00652 -1.01e-1  0.0505  -0.0223 
    ##  9 LG013 2.90e7 2.95e7 2.93e7  0.218   0.171  0.00535  4.56e-2  0.00528  0.0402 
    ## 10 LG079 2.39e7 2.44e7 2.42e7  0.129   0.166  0.0536  -7.75e-4 -0.00472  0.0482 
    ## # … with 9,018 more rows, and 4 more variables: dist_7 <dbl>, dist_8 <dbl>,
    ## #   dist_9 <dbl>, dist_10 <dbl>
…
